/opt/slurm/22.05.3/var/slurm/job127657/slurm_script: line 20: module: command not found

------------------
Running STARTSPARK.py
------------------

-- Creating spark instances
-- Creating tmp directories and throing spark instance in 192.168.3.83
rm: cannot remove '/tmp/spark/logs': No such file or directory
rm: cannot remove '/tmp/spark/work': No such file or directory
load singularity/3.9.6 (PATH)
INFO:    Converting SIF file to temporary sandbox...
is a directory

INFO:    instance started successfully
-- Creating tmp directories and throing spark instance in 192.168.3.84
rm: cannot remove '/tmp/spark/logs': No such file or directory
rm: cannot remove '/tmp/spark/work': No such file or directory
load singularity/3.9.6 (PATH)
INFO:    Converting SIF file to temporary sandbox...
is a directory

INFO:    instance started successfully
-- Creating tmp directories and starting spark instance in 192.168.3.82
rm: cannot remove '/tmp/spark/logs': No such file or directory
rm: cannot remove '/tmp/spark/work': No such file or directory
load singularity/3.9.6 (PATH)
INFO:    Converting SIF file to temporary sandbox...
is a directory

INFO:    instance started successfully
-- Starting MASTER
load singularity/3.9.6 (PATH)
is a directory
starting org.apache.spark.deploy.master.Master, logging to /opt/spark/logs/spark-ggomez-org.apache.spark.deploy.master.Master-1-arriesgado-4.out
failed to launch: nice -n 0 /opt/spark/bin/spark-class org.apache.spark.deploy.master.Master --host 192.168.3.82 --port 7078 --webui-port 8081
full log in /opt/spark/logs/spark-ggomez-org.apache.spark.deploy.master.Master-1-arriesgado-4.out
-- Starting WORKER 192.168.3.83
load singularity/3.9.6 (PATH)
is a directory
starting org.apache.spark.deploy.worker.Worker, logging to /opt/spark/logs/spark-ggomez-org.apache.spark.deploy.worker.Worker-1-arriesgado-5.out
failed to launch: nice -n 0 /opt/spark/bin/spark-class org.apache.spark.deploy.worker.Worker --webui-port 8082 192.168.3.82:7078 --cores 3
full log in /opt/spark/logs/spark-ggomez-org.apache.spark.deploy.worker.Worker-1-arriesgado-5.out
-- Starting WORKER 192.168.3.84
load singularity/3.9.6 (PATH)
is a directory
starting org.apache.spark.deploy.worker.Worker, logging to /opt/spark/logs/spark-ggomez-org.apache.spark.deploy.worker.Worker-2-arriesgado-6.out
failed to launch: nice -n 0 /opt/spark/bin/spark-class org.apache.spark.deploy.worker.Worker --webui-port 8083 192.168.3.82:7078 --cores 3
full log in /opt/spark/logs/spark-ggomez-org.apache.spark.deploy.worker.Worker-2-arriesgado-6.out


------------------
STARTSPARK.py done!
------------------

copying epistasis input to node 192.168.3.83
copying epistasis input to node 192.168.3.84
load singularity/3.9.6 (PATH)
is a directory
23/03/24 11:47:26 WARN Utils: Your hostname, arriesgado-4 resolves to a loopback address: 127.0.1.1; using 192.168.3.82 instead (on interface eth0)
23/03/24 11:47:26 WARN Utils: Set SPARK_LOCAL_IP if you need to bind to another address
WARNING: An illegal reflective access operation has occurred
WARNING: Illegal reflective access by org.apache.spark.unsafe.Platform (file:/opt/spark/jars/spark-unsafe_2.12-3.1.1.jar) to constructor java.nio.DirectByteBuffer(long,int)
WARNING: Please consider reporting this to the maintainers of org.apache.spark.unsafe.Platform
WARNING: Use --illegal-access=warn to enable warnings of further illegal reflective access operations
WARNING: All illegal access operations will be denied in a future release
23/03/24 11:47:47 WARN NativeCodeLoader: Unable to load native-hadoop library for your platform... using builtin-java classes where applicable
Using Spark's default log4j profile: org/apache/spark/log4j-defaults.properties
Setting default log level to "WARN".
To adjust logging level use sc.setLogLevel(newLevel). For SparkR, use setLogLevel(newLevel).
[Stage 0:>                                                          (0 + 0) / 1][Stage 0:>                                                          (0 + 1) / 1][Stage 0:>                                                          (0 + 1) / 1][Stage 0:===========================================================(1 + 0) / 1]                                                                                [Stage 1:>                                                          (0 + 0) / 1][Stage 1:>                                                          (0 + 1) / 1][Stage 1:>                                                          (0 + 1) / 1]                                                                                [Stage 2:>                                                          (0 + 0) / 2][Stage 2:>                                                          (0 + 2) / 2]                                                                                [Stage 3:>                                                          (0 + 1) / 1]                                                                                [Stage 4:>                                                          (0 + 1) / 1]                                                                                [Stage 5:>                                                          (0 + 4) / 4]                                                                                [Stage 6:>                                                          (0 + 1) / 1]                                                                                [Stage 7:>                                                          (0 + 1) / 1]                                                                                [Stage 8:>                                                         (0 + 6) / 16][Stage 8:=======>                                                  (2 + 6) / 16][Stage 8:==========>                                               (3 + 6) / 16][Stage 8:==============>                                           (4 + 6) / 16][Stage 8:==================>                                       (5 + 6) / 16][Stage 8:=====================>                                    (6 + 6) / 16][Stage 8:=========================>                                (7 + 6) / 16][Stage 8:=============================>                            (8 + 6) / 16][Stage 8:================================>                         (9 + 6) / 16][Stage 8:===================================>                     (10 + 6) / 16][Stage 8:=======================================>                 (11 + 5) / 16][Stage 8:==========================================>              (12 + 4) / 16][Stage 8:=================================================>       (14 + 2) / 16][Stage 8:=====================================================>   (15 + 1) / 16]                                                                                [Stage 9:>                                                         (0 + 6) / 16][Stage 9:===>                                                      (1 + 6) / 16][Stage 9:==========>                                               (3 + 7) / 16][Stage 9:=====================>                                    (6 + 6) / 16][Stage 9:=========================>                                (7 + 6) / 16][Stage 9:================================>                         (9 + 7) / 16][Stage 9:==========================================>              (12 + 4) / 16][Stage 9:==============================================>          (13 + 3) / 16][Stage 9:=====================================================>   (15 + 1) / 16]                                                                                [Stage 10:>                                                        (0 + 0) / 16][Stage 10:>                                                        (0 + 2) / 16][Stage 10:>                                                        (0 + 6) / 16][Stage 10:>                                                        (0 + 7) / 16][Stage 10:==========>                                              (3 + 6) / 16][Stage 10:=================>                                       (5 + 7) / 16][Stage 10:=====================>                                   (6 + 6) / 16][Stage 10:========================>                                (7 + 6) / 16][Stage 10:================================>                        (9 + 6) / 16][Stage 10:===================================>                    (10 + 6) / 16][Stage 10:==========================================>             (12 + 4) / 16][Stage 10:=============================================>          (13 + 3) / 16][Stage 10:========================================================(16 + 0) / 16]                                                                                
--------------------------------
--- STARTING sparkmdr_x86.py ---
--------------------------------

Number of files to be processed 1.
Number of cores set to 3.
Number of partitions of the rdd set to 4.
Number of nodes set to 2.
Connected with spartk
Patients read
Ration cases/controls: 0.8768718801996672
List of files obtained.

----- RUNNING 1 FILES -----

Loading main file chr22_NuGENE0000.gz
File loaded in :  37.29345698887482
RDD1 partitions: 4
RDD1 variants: 50
Processing secondary file chr22_NuGENE0000.gz
File 2 loaded.
Applying MDR...
MDR applied to: 2500 pairs.
Saving data...
Data saved.

Combined main file chr22_NuGENE0000.gz in: 137.25615593791008
------------------------------------------

Running time: 137.2562379380688
Total time: 723.6256308387965
Total pairs processed: 2500
/opt/slurm/22.05.3/var/slurm/job127657/slurm_script: line 38: module: command not found

-------------------
Running STOPSPARK.py
-------------------

-- Stopping MASTER 192.168.3.82
bash: line 1: singularity: command not found
Stopping WORKER 192.168.3.83
bash: line 1: singularity: command not found
Stopping WORKER 192.168.3.84
bash: line 1: singularity: command not found
-- Stopping singularity instance
bash: line 1: singularity: command not found
bash: line 1: singularity: command not found

-------------------
STOPSPARK.py done!
-------------------

*************
JSCRIPT DONE!
*************
