Number of cores: 1
Dataset: partitions
Number of partitions 2
Number of files: 1
Total pairs processed: 2500
Total time: 848.7930773859844

Number of cores: 2
Dataset: partitions
Number of partitions 4
Number of files: 1
Total pairs processed: 2500
Total time: 894.1468485239893

Number of cores: 4
Dataset: partitions
Number of partitions 4
Number of files: 1
Total pairs processed: 2500
Total time: 884.4266820307821

Number of cores: 1
Dataset: partitions
Number of partitions 2
Number of files: 3
Total pairs processed: 22500
Total time: 1635.1211238754913

Number of cores: 2
Dataset: partitions
Number of partitions 4
Number of files: 3
Total pairs processed: 22500
Total time: 1653.3310992177576

Number of cores: 4
Dataset: partitions
Number of partitions 4
Number of files: 3
Total pairs processed: 22500
Total time: 1518.8436610680073

Number of cores: 1
Dataset: partitions
Number of partitions 2
Number of files: 5
Total pairs processed: 62500
Total time: 3259.6950468858704

Number of cores: 2
Dataset: partitions
Number of partitions 4
Number of files: 5
Total pairs processed: 62500
Total time: 3241.5767706576735

Number of cores: 4
Dataset: partitions
Number of partitions 4
Number of files: 5
Total pairs processed: 62500
Total time: 2869.4230836965144

