/opt/slurm/22.05.3/var/slurm/job186071/slurm_script: line 22: module: command not found

------------------
Running STARTSPARK.py
------------------

-- Creating spark instances
-- Creating tmp directories and throwing spark instance in 192.168.3.84
rm: cannot remove '/tmp/spark/logs': No such file or directory
rm: cannot remove '/tmp/spark/work': No such file or directory
rm: cannot remove '/tmp/spark-events': No such file or directory
load singularity/3.9.6 (PATH)
INFO:    Converting SIF file to temporary sandbox...
is a directory

INFO:    instance started successfully
-- Creating tmp directories and throwing spark instance in 192.168.3.85
rm: cannot remove '/tmp/spark/logs': No such file or directory
rm: cannot remove '/tmp/spark/work': No such file or directory
rm: cannot remove '/tmp/spark-events': No such file or directory
load singularity/3.9.6 (PATH)
INFO:    Converting SIF file to temporary sandbox...
is a directory

INFO:    instance started successfully
-- Creating tmp directories and throwing spark instance in 192.168.3.86
rm: cannot remove '/tmp/spark/logs': No such file or directory
rm: cannot remove '/tmp/spark/work': No such file or directory
rm: cannot remove '/tmp/spark-events': No such file or directory
load singularity/3.9.6 (PATH)
INFO:    Converting SIF file to temporary sandbox...
is a directory

INFO:    instance started successfully
-- Creating tmp directories and starting spark instance in 192.168.3.83
rm: cannot remove '/tmp/spark/logs': No such file or directory
rm: cannot remove '/tmp/spark/work': No such file or directory
rm: cannot remove '/tmp/spark-events': No such file or directory
load singularity/3.9.6 (PATH)
INFO:    Converting SIF file to temporary sandbox...
is a directory

INFO:    instance started successfully
-- Starting MASTER
load singularity/3.9.6 (PATH)
is a directory
starting org.apache.spark.deploy.master.Master, logging to /opt/spark/logs/spark-ggomez-org.apache.spark.deploy.master.Master-1-arriesgado-5.out
failed to launch: nice -n 0 /opt/spark/bin/spark-class org.apache.spark.deploy.master.Master --host 192.168.3.83 --port 7078 --webui-port 8081
full log in /opt/spark/logs/spark-ggomez-org.apache.spark.deploy.master.Master-1-arriesgado-5.out
-- Starting WORKER 192.168.3.84
load singularity/3.9.6 (PATH)
is a directory
starting org.apache.spark.deploy.worker.Worker, logging to /opt/spark/logs/spark-ggomez-org.apache.spark.deploy.worker.Worker-1-arriesgado-6.out
failed to launch: nice -n 0 /opt/spark/bin/spark-class org.apache.spark.deploy.worker.Worker 192.168.3.83:7078 --webui-port 8082 --cores 4
full log in /opt/spark/logs/spark-ggomez-org.apache.spark.deploy.worker.Worker-1-arriesgado-6.out
-- Starting WORKER 192.168.3.85
load singularity/3.9.6 (PATH)
is a directory
starting org.apache.spark.deploy.worker.Worker, logging to /opt/spark/logs/spark-ggomez-org.apache.spark.deploy.worker.Worker-2-arriesgado-7.out
failed to launch: nice -n 0 /opt/spark/bin/spark-class org.apache.spark.deploy.worker.Worker 192.168.3.83:7078 --webui-port 8083 --cores 4
full log in /opt/spark/logs/spark-ggomez-org.apache.spark.deploy.worker.Worker-2-arriesgado-7.out
-- Starting WORKER 192.168.3.86
load singularity/3.9.6 (PATH)
is a directory
starting org.apache.spark.deploy.worker.Worker, logging to /opt/spark/logs/spark-ggomez-org.apache.spark.deploy.worker.Worker-3-arriesgado-8.out
failed to launch: nice -n 0 /opt/spark/bin/spark-class org.apache.spark.deploy.worker.Worker 192.168.3.83:7078 --webui-port 8084 --cores 4
full log in /opt/spark/logs/spark-ggomez-org.apache.spark.deploy.worker.Worker-3-arriesgado-8.out


------------------
STARTSPARK.py done!
------------------


--- Copying input data to working node 192.168.3.84
chr22_NuGENE01.gz
listoffiles.txt
partitions
phs000237v1_eMERGE_T2D_NORTHWESTERN_1.sample

--- Copying input data to working node 192.168.3.85
chr22_NuGENE01.gz
listoffiles.txt
partitions
phs000237v1_eMERGE_T2D_NORTHWESTERN_1.sample

--- Copying input data to working node 192.168.3.86
chr22_NuGENE01.gz
listoffiles.txt
partitions
phs000237v1_eMERGE_T2D_NORTHWESTERN_1.sample

--- Copying input data to master node 192.168.3.83
chr22_NuGENE01.gz
listoffiles.txt
partitions
phs000237v1_eMERGE_T2D_NORTHWESTERN_1.sample
load singularity/3.9.6 (PATH)
is a directory
23/11/15 21:53:11 WARN Utils: Your hostname, arriesgado-5 resolves to a loopback address: 127.0.1.1; using 192.168.3.83 instead (on interface eth0)
23/11/15 21:53:12 WARN Utils: Set SPARK_LOCAL_IP if you need to bind to another address
Setting default log level to "WARN".
To adjust logging level use sc.setLogLevel(newLevel). For SparkR, use setLogLevel(newLevel).
23/11/15 21:53:41 WARN NativeCodeLoader: Unable to load native-hadoop library for your platform... using builtin-java classes where applicable
[Stage 0:>                                                          (0 + 0) / 1][Stage 0:>                                                          (0 + 1) / 1][Stage 0:>                                                          (0 + 1) / 1][Stage 0:===========================================================(1 + 0) / 1]                                                                                [Stage 1:>                                                          (0 + 0) / 1][Stage 1:>                                                          (0 + 1) / 1][Stage 1:===========================================================(1 + 0) / 1]                                                                                [Stage 2:>                                                          (0 + 1) / 2][Stage 2:>                                                          (0 + 2) / 2][Stage 2:=============================>                             (1 + 1) / 2]                                                                                [Stage 3:>                                                          (0 + 1) / 1]                                                                                [Stage 4:>                                                          (0 + 1) / 1]                                                                                [Stage 5:>                                                          (0 + 1) / 1]                                                                                [Stage 6:>                                                          (0 + 1) / 1]                                                                                [Stage 7:>                                                         (0 + 5) / 36][Stage 7:>                                                        (0 + 11) / 36][Stage 7:>                                                        (0 + 12) / 36][Stage 7:=>                                                       (1 + 13) / 36][Stage 7:======>                                                  (4 + 12) / 36][Stage 7:=======>                                                 (5 + 12) / 36][Stage 7:===========>                                             (7 + 12) / 36][Stage 7:============>                                            (8 + 12) / 36][Stage 7:============>                                            (8 + 14) / 36][Stage 7:=================>                                      (11 + 13) / 36][Stage 7:==================>                                     (12 + 12) / 36][Stage 7:====================>                                   (13 + 12) / 36][Stage 7:=====================>                                  (14 + 13) / 36][Stage 7:========================>                               (16 + 13) / 36][Stage 7:============================>                           (18 + 12) / 36][Stage 7:===============================>                        (20 + 12) / 36][Stage 7:================================>                       (21 + 12) / 36][Stage 7:===================================>                    (23 + 12) / 36][Stage 7:=====================================>                  (24 + 12) / 36][Stage 7:======================================>                 (25 + 11) / 36][Stage 7:==========================================>              (27 + 9) / 36][Stage 7:============================================>            (28 + 8) / 36][Stage 7:===============================================>         (30 + 6) / 36][Stage 7:==================================================>      (32 + 4) / 36][Stage 7:====================================================>    (33 + 3) / 36][Stage 7:=======================================================> (35 + 1) / 36]                                                                                [Stage 8:>                                                         (0 + 0) / 36][Stage 8:>                                                         (0 + 3) / 36][Stage 8:>                                                        (0 + 10) / 36][Stage 8:>                                                        (0 + 12) / 36][Stage 8:>                                                        (0 + 14) / 36][Stage 8:=>                                                       (1 + 14) / 36][Stage 8:======>                                                  (4 + 14) / 36][Stage 8:===========>                                             (7 + 13) / 36][Stage 8:============>                                            (8 + 12) / 36][Stage 8:============>                                            (8 + 13) / 36][Stage 8:==============>                                          (9 + 14) / 36][Stage 8:==================>                                     (12 + 12) / 36][Stage 8:==================>                                     (12 + 13) / 36][Stage 8:=====================>                                  (14 + 13) / 36][Stage 8:========================>                               (16 + 12) / 36][Stage 8:========================>                               (16 + 13) / 36][Stage 8:============================>                           (18 + 13) / 36][Stage 8:===============================>                        (20 + 12) / 36][Stage 8:===============================>                        (20 + 13) / 36][Stage 8:================================>                       (21 + 13) / 36][Stage 8:===================================>                    (23 + 12) / 36][Stage 8:=====================================>                  (24 + 12) / 36][Stage 8:==========================================>              (27 + 9) / 36][Stage 8:============================================>            (28 + 8) / 36][Stage 8:=============================================>           (29 + 7) / 36][Stage 8:=================================================>       (31 + 5) / 36][Stage 8:==================================================>      (32 + 4) / 36][Stage 8:====================================================>    (33 + 3) / 36][Stage 8:=======================================================> (35 + 1) / 36]                                                                                [Stage 9:>                                                          (0 + 1) / 1]                                                                                [Stage 10:>                                                         (0 + 1) / 1]                                                                                [Stage 11:>                                                       (0 + 10) / 36][Stage 11:>                                                       (0 + 12) / 36][Stage 11:=>                                                      (1 + 12) / 36][Stage 11:===>                                                    (2 + 13) / 36][Stage 11:======>                                                 (4 + 15) / 36][Stage 11:=======>                                                (5 + 14) / 36][Stage 11:==============>                                         (9 + 13) / 36][Stage 11:==================>                                    (12 + 12) / 36][Stage 11:===================>                                   (13 + 12) / 36][Stage 11:=====================>                                 (14 + 12) / 36][Stage 11:========================>                              (16 + 13) / 36][Stage 11:===========================>                           (18 + 12) / 36][Stage 11:===========================>                           (18 + 13) / 36][Stage 11:==============================>                        (20 + 12) / 36][Stage 11:================================>                      (21 + 13) / 36][Stage 11:===================================>                   (23 + 12) / 36][Stage 11:====================================>                  (24 + 12) / 36][Stage 11:=======================================>               (26 + 10) / 36][Stage 11:==========================================>             (27 + 9) / 36][Stage 11:==============================================>         (30 + 6) / 36][Stage 11:=================================================>      (32 + 4) / 36][Stage 11:====================================================>   (34 + 2) / 36][Stage 11:======================================================> (35 + 1) / 36]                                                                                [Stage 12:>                                                        (0 + 0) / 36][Stage 12:>                                                        (0 + 7) / 36][Stage 12:>                                                       (0 + 12) / 36][Stage 12:>                                                       (0 + 13) / 36][Stage 12:===>                                                    (2 + 13) / 36][Stage 12:======>                                                 (4 + 13) / 36][Stage 12:=========>                                              (6 + 14) / 36][Stage 12:============>                                           (8 + 12) / 36][Stage 12:===============>                                       (10 + 12) / 36][Stage 12:================>                                      (11 + 12) / 36][Stage 12:==================>                                    (12 + 12) / 36][Stage 12:===================>                                   (13 + 14) / 36][Stage 12:======================>                                (15 + 13) / 36][Stage 12:=========================>                             (17 + 12) / 36][Stage 12:===========================>                           (18 + 12) / 36][Stage 12:===========================>                           (18 + 13) / 36][Stage 12:==============================>                        (20 + 12) / 36][Stage 12:================================>                      (21 + 13) / 36][Stage 12:=================================>                     (22 + 12) / 36][Stage 12:=================================>                     (22 + 14) / 36][Stage 12:====================================>                  (24 + 12) / 36][Stage 12:======================================>                (25 + 11) / 36][Stage 12:===========================================>            (28 + 8) / 36][Stage 12:=============================================>          (29 + 7) / 36][Stage 12:==============================================>         (30 + 6) / 36][Stage 12:================================================>       (31 + 5) / 36][Stage 12:=================================================>      (32 + 4) / 36][Stage 12:===================================================>    (33 + 3) / 36][Stage 12:====================================================>   (34 + 2) / 36][Stage 12:======================================================> (35 + 1) / 36]                                                                                [Stage 13:>                                                         (0 + 1) / 1]                                                                                [Stage 14:>                                                         (0 + 1) / 1]                                                                                [Stage 15:>                                                        (0 + 6) / 36][Stage 15:>                                                       (0 + 12) / 36][Stage 15:=>                                                      (1 + 12) / 36][Stage 15:===>                                                    (2 + 14) / 36][Stage 15:=======>                                                (5 + 12) / 36][Stage 15:==========>                                             (7 + 12) / 36][Stage 15:============>                                           (8 + 14) / 36][Stage 15:==================>                                    (12 + 12) / 36][Stage 15:==================>                                    (12 + 13) / 36][Stage 15:=====================>                                 (14 + 12) / 36][Stage 15:======================>                                (15 + 12) / 36][Stage 15:========================>                              (16 + 12) / 36][Stage 15:===========================>                           (18 + 12) / 36][Stage 15:=============================>                         (19 + 13) / 36][Stage 15:================================>                      (21 + 13) / 36][Stage 15:===================================>                   (23 + 13) / 36][Stage 15:====================================>                  (24 + 12) / 36][Stage 15:=======================================>               (26 + 10) / 36][Stage 15:==========================================>             (27 + 9) / 36][Stage 15:===========================================>            (28 + 8) / 36][Stage 15:=============================================>          (29 + 7) / 36][Stage 15:==============================================>         (30 + 6) / 36][Stage 15:================================================>       (31 + 5) / 36][Stage 15:=================================================>      (32 + 4) / 36][Stage 15:===================================================>    (33 + 3) / 36][Stage 15:========================================================(36 + 0) / 36]                                                                                [Stage 16:>                                                        (0 + 0) / 36][Stage 16:>                                                        (0 + 7) / 36][Stage 16:>                                                       (0 + 12) / 36][Stage 16:>                                                       (0 + 13) / 36][Stage 16:====>                                                   (3 + 12) / 36][Stage 16:======>                                                 (4 + 14) / 36][Stage 16:==========>                                             (7 + 13) / 36][Stage 16:============>                                           (8 + 12) / 36][Stage 16:===============>                                       (10 + 12) / 36][Stage 16:==================>                                    (12 + 12) / 36][Stage 16:===================>                                   (13 + 13) / 36][Stage 16:======================>                                (15 + 12) / 36][Stage 16:========================>                              (16 + 12) / 36][Stage 16:========================>                              (16 + 13) / 36][Stage 16:===========================>                           (18 + 12) / 36][Stage 16:=============================>                         (19 + 13) / 36][Stage 16:==============================>                        (20 + 12) / 36][Stage 16:==============================>                        (20 + 13) / 36][Stage 16:=================================>                     (22 + 12) / 36][Stage 16:=================================>                     (22 + 13) / 36][Stage 16:====================================>                  (24 + 12) / 36][Stage 16:======================================>                (25 + 11) / 36][Stage 16:==========================================>             (27 + 9) / 36][Stage 16:===========================================>            (28 + 8) / 36][Stage 16:=============================================>          (29 + 7) / 36][Stage 16:==============================================>         (30 + 6) / 36][Stage 16:================================================>       (31 + 5) / 36][Stage 16:=================================================>      (32 + 4) / 36][Stage 16:====================================================>   (34 + 2) / 36][Stage 16:======================================================> (35 + 1) / 36]                                                                                [Stage 17:>                                                         (0 + 1) / 1]                                                                                [Stage 18:>                                                         (0 + 1) / 1]                                                                                [Stage 19:>                                                         (0 + 1) / 1]                                                                                [Stage 20:>                                                         (0 + 1) / 1]                                                                                [Stage 21:>                                                        (0 + 9) / 36][Stage 21:>                                                       (0 + 12) / 36][Stage 21:=>                                                      (1 + 13) / 36][Stage 21:===>                                                    (2 + 14) / 36][Stage 21:======>                                                 (4 + 13) / 36][Stage 21:=======>                                                (5 + 14) / 36][Stage 21:============>                                           (8 + 14) / 36][Stage 21:================>                                      (11 + 13) / 36][Stage 21:==================>                                    (12 + 12) / 36][Stage 21:===================>                                   (13 + 13) / 36][Stage 21:======================>                                (15 + 12) / 36][Stage 21:========================>                              (16 + 14) / 36][Stage 21:=============================>                         (19 + 12) / 36][Stage 21:==============================>                        (20 + 13) / 36][Stage 21:=================================>                     (22 + 13) / 36][Stage 21:===================================>                   (23 + 12) / 36][Stage 21:====================================>                  (24 + 12) / 36][Stage 21:=======================================>               (26 + 10) / 36][Stage 21:===========================================>            (28 + 8) / 36][Stage 21:==============================================>         (30 + 6) / 36][Stage 21:=================================================>      (32 + 4) / 36][Stage 21:====================================================>   (34 + 2) / 36][Stage 21:======================================================> (35 + 1) / 36]                                                                                [Stage 22:>                                                        (0 + 0) / 36][Stage 22:>                                                        (0 + 2) / 36][Stage 22:>                                                        (0 + 9) / 36][Stage 22:>                                                       (0 + 12) / 36][Stage 22:=>                                                      (1 + 14) / 36][Stage 22:====>                                                   (3 + 14) / 36][Stage 22:=========>                                              (6 + 13) / 36][Stage 22:============>                                           (8 + 12) / 36][Stage 22:============>                                           (8 + 13) / 36][Stage 22:===============>                                       (10 + 12) / 36][Stage 22:===============>                                       (10 + 13) / 36][Stage 22:==================>                                    (12 + 12) / 36][Stage 22:===================>                                   (13 + 12) / 36][Stage 22:=====================>                                 (14 + 13) / 36][Stage 22:========================>                              (16 + 12) / 36][Stage 22:=========================>                             (17 + 13) / 36][Stage 22:=============================>                         (19 + 13) / 36][Stage 22:==============================>                        (20 + 12) / 36][Stage 22:================================>                      (21 + 12) / 36][Stage 22:=================================>                     (22 + 12) / 36][Stage 22:===================================>                   (23 + 12) / 36][Stage 22:====================================>                  (24 + 12) / 36][Stage 22:======================================>                (25 + 11) / 36][Stage 22:=======================================>               (26 + 10) / 36][Stage 22:=============================================>          (29 + 7) / 36][Stage 22:=================================================>      (32 + 4) / 36][Stage 22:===================================================>    (33 + 3) / 36][Stage 22:====================================================>   (34 + 2) / 36][Stage 22:======================================================> (35 + 1) / 36]                                                                                [Stage 23:>                                                         (0 + 1) / 1][Stage 23:==========================================================(1 + 0) / 1]                                                                                [Stage 24:>                                                         (0 + 1) / 1]                                                                                [Stage 25:>                                                       (0 + 10) / 36][Stage 25:>                                                       (0 + 12) / 36][Stage 25:===>                                                    (2 + 12) / 36][Stage 25:====>                                                   (3 + 13) / 36][Stage 25:=======>                                                (5 + 13) / 36][Stage 25:============>                                           (8 + 12) / 36][Stage 25:==============>                                         (9 + 13) / 36][Stage 25:===============>                                       (10 + 12) / 36][Stage 25:==================>                                    (12 + 12) / 36][Stage 25:===================>                                   (13 + 13) / 36][Stage 25:======================>                                (15 + 13) / 36][Stage 25:========================>                              (16 + 12) / 36][Stage 25:=========================>                             (17 + 12) / 36][Stage 25:=============================>                         (19 + 13) / 36][Stage 25:==============================>                        (20 + 12) / 36][Stage 25:==============================>                        (20 + 13) / 36][Stage 25:=================================>                     (22 + 12) / 36][Stage 25:===================================>                   (23 + 12) / 36][Stage 25:====================================>                  (24 + 12) / 36][Stage 25:======================================>                (25 + 11) / 36][Stage 25:==========================================>             (27 + 9) / 36][Stage 25:===========================================>            (28 + 8) / 36][Stage 25:=============================================>          (29 + 7) / 36][Stage 25:================================================>       (31 + 5) / 36][Stage 25:=================================================>      (32 + 4) / 36][Stage 25:====================================================>   (34 + 2) / 36][Stage 25:======================================================> (35 + 1) / 36]                                                                                [Stage 26:>                                                        (0 + 0) / 36][Stage 26:>                                                        (0 + 5) / 36][Stage 26:>                                                       (0 + 11) / 36][Stage 26:>                                                       (0 + 12) / 36][Stage 26:>                                                       (0 + 13) / 36][Stage 26:=>                                                      (1 + 13) / 36][Stage 26:===>                                                    (2 + 15) / 36][Stage 26:====>                                                   (3 + 15) / 36][Stage 26:==========>                                             (7 + 12) / 36][Stage 26:============>                                           (8 + 13) / 36][Stage 26:================>                                      (11 + 13) / 36][Stage 26:==================>                                    (12 + 12) / 36][Stage 26:===================>                                   (13 + 12) / 36][Stage 26:===================>                                   (13 + 13) / 36][Stage 26:======================>                                (15 + 12) / 36][Stage 26:========================>                              (16 + 13) / 36][Stage 26:=============================>                         (19 + 12) / 36][Stage 26:==============================>                        (20 + 12) / 36][Stage 26:==============================>                        (20 + 13) / 36][Stage 26:=================================>                     (22 + 12) / 36][Stage 26:===================================>                   (23 + 12) / 36][Stage 26:====================================>                  (24 + 12) / 36][Stage 26:======================================>                (25 + 11) / 36][Stage 26:=======================================>               (26 + 10) / 36][Stage 26:=============================================>          (29 + 7) / 36][Stage 26:==============================================>         (30 + 6) / 36][Stage 26:================================================>       (31 + 5) / 36][Stage 26:=================================================>      (32 + 4) / 36][Stage 26:===================================================>    (33 + 3) / 36][Stage 26:======================================================> (35 + 1) / 36]                                                                                [Stage 27:>                                                         (0 + 1) / 1]                                                                                [Stage 28:>                                                         (0 + 1) / 1]                                                                                [Stage 29:>                                                       (0 + 10) / 36][Stage 29:>                                                       (0 + 12) / 36][Stage 29:>                                                       (0 + 13) / 36][Stage 29:===>                                                    (2 + 13) / 36][Stage 29:====>                                                   (3 + 15) / 36][Stage 29:==========>                                             (7 + 12) / 36][Stage 29:==============>                                         (9 + 13) / 36][Stage 29:================>                                      (11 + 13) / 36][Stage 29:==================>                                    (12 + 12) / 36][Stage 29:===================>                                   (13 + 12) / 36][Stage 29:=====================>                                 (14 + 13) / 36][Stage 29:========================>                              (16 + 12) / 36][Stage 29:===========================>                           (18 + 13) / 36][Stage 29:=============================>                         (19 + 13) / 36][Stage 29:================================>                      (21 + 12) / 36][Stage 29:===================================>                   (23 + 12) / 36][Stage 29:====================================>                  (24 + 12) / 36][Stage 29:======================================>                (25 + 11) / 36][Stage 29:===========================================>            (28 + 8) / 36][Stage 29:==============================================>         (30 + 6) / 36][Stage 29:=================================================>      (32 + 4) / 36][Stage 29:===================================================>    (33 + 3) / 36][Stage 29:====================================================>   (34 + 2) / 36][Stage 29:======================================================> (35 + 1) / 36]                                                                                [Stage 30:>                                                        (0 + 0) / 36][Stage 30:>                                                        (0 + 2) / 36][Stage 30:>                                                        (0 + 9) / 36][Stage 30:>                                                       (0 + 12) / 36][Stage 30:=>                                                      (1 + 13) / 36][Stage 30:====>                                                   (3 + 14) / 36][Stage 30:=========>                                              (6 + 12) / 36][Stage 30:============>                                           (8 + 13) / 36][Stage 30:===============>                                       (10 + 13) / 36][Stage 30:==================>                                    (12 + 12) / 36][Stage 30:===================>                                   (13 + 12) / 36][Stage 30:=====================>                                 (14 + 12) / 36][Stage 30:======================>                                (15 + 12) / 36][Stage 30:========================>                              (16 + 12) / 36][Stage 30:=========================>                             (17 + 14) / 36][Stage 30:=============================>                         (19 + 13) / 36][Stage 30:================================>                      (21 + 12) / 36][Stage 30:================================>                      (21 + 13) / 36][Stage 30:=================================>                     (22 + 13) / 36][Stage 30:===================================>                   (23 + 12) / 36][Stage 30:====================================>                  (24 + 12) / 36][Stage 30:=======================================>               (26 + 10) / 36][Stage 30:==========================================>             (27 + 9) / 36][Stage 30:===========================================>            (28 + 8) / 36][Stage 30:=============================================>          (29 + 7) / 36][Stage 30:================================================>       (31 + 5) / 36][Stage 30:=================================================>      (32 + 4) / 36][Stage 30:===================================================>    (33 + 3) / 36][Stage 30:======================================================> (35 + 1) / 36]                                                                                [Stage 31:>                                                         (0 + 1) / 1]                                                                                [Stage 32:>                                                         (0 + 1) / 1]                                                                                [Stage 33:>                                                         (0 + 1) / 1]                                                                                [Stage 34:>                                                         (0 + 1) / 1]                                                                                [Stage 35:>                                                        (0 + 9) / 36][Stage 35:>                                                       (0 + 12) / 36][Stage 35:>                                                       (0 + 13) / 36][Stage 35:===>                                                    (2 + 13) / 36][Stage 35:======>                                                 (4 + 14) / 36][Stage 35:==========>                                             (7 + 13) / 36][Stage 35:============>                                           (8 + 12) / 36][Stage 35:============>                                           (8 + 13) / 36][Stage 35:===============>                                       (10 + 14) / 36][Stage 35:==================>                                    (12 + 12) / 36][Stage 35:=====================>                                 (14 + 12) / 36][Stage 35:======================>                                (15 + 12) / 36][Stage 35:======================>                                (15 + 13) / 36][Stage 35:=========================>                             (17 + 12) / 36][Stage 35:===========================>                           (18 + 13) / 36][Stage 35:==============================>                        (20 + 12) / 36][Stage 35:==============================>                        (20 + 13) / 36][Stage 35:================================>                      (21 + 13) / 36][Stage 35:===================================>                   (23 + 12) / 36][Stage 35:===================================>                   (23 + 13) / 36][Stage 35:====================================>                  (24 + 12) / 36][Stage 35:======================================>                (25 + 11) / 36][Stage 35:==========================================>             (27 + 9) / 36][Stage 35:===========================================>            (28 + 8) / 36][Stage 35:=============================================>          (29 + 7) / 36][Stage 35:=================================================>      (32 + 4) / 36][Stage 35:===================================================>    (33 + 3) / 36][Stage 35:======================================================> (35 + 1) / 36]                                                                                [Stage 36:>                                                        (0 + 0) / 36][Stage 36:>                                                        (0 + 1) / 36][Stage 36:>                                                        (0 + 8) / 36][Stage 36:>                                                       (0 + 12) / 36][Stage 36:=>                                                      (1 + 13) / 36][Stage 36:======>                                                 (4 + 12) / 36][Stage 36:=======>                                                (5 + 13) / 36][Stage 36:=========>                                              (6 + 12) / 36][Stage 36:============>                                           (8 + 13) / 36][Stage 36:==============>                                         (9 + 14) / 36][Stage 36:==================>                                    (12 + 12) / 36][Stage 36:===================>                                   (13 + 12) / 36][Stage 36:======================>                                (15 + 12) / 36][Stage 36:======================>                                (15 + 13) / 36][Stage 36:========================>                              (16 + 12) / 36][Stage 36:=========================>                             (17 + 14) / 36][Stage 36:==============================>                        (20 + 13) / 36][Stage 36:=================================>                     (22 + 13) / 36][Stage 36:===================================>                   (23 + 13) / 36][Stage 36:====================================>                  (24 + 12) / 36][Stage 36:=======================================>               (26 + 10) / 36][Stage 36:==========================================>             (27 + 9) / 36][Stage 36:===========================================>            (28 + 8) / 36][Stage 36:=============================================>          (29 + 7) / 36][Stage 36:=================================================>      (32 + 4) / 36][Stage 36:===================================================>    (33 + 3) / 36][Stage 36:======================================================> (35 + 1) / 36]                                                                                [Stage 37:>                                                         (0 + 1) / 1][Stage 37:==========================================================(1 + 0) / 1]                                                                                [Stage 38:>                                                         (0 + 1) / 1]                                                                                [Stage 39:>                                                        (0 + 8) / 36][Stage 39:>                                                       (0 + 12) / 36][Stage 39:===>                                                    (2 + 13) / 36][Stage 39:======>                                                 (4 + 12) / 36][Stage 39:=========>                                              (6 + 13) / 36][Stage 39:============>                                           (8 + 12) / 36][Stage 39:===============>                                       (10 + 13) / 36][Stage 39:==================>                                    (12 + 12) / 36][Stage 39:==================>                                    (12 + 13) / 36][Stage 39:=====================>                                 (14 + 12) / 36][Stage 39:======================>                                (15 + 12) / 36][Stage 39:========================>                              (16 + 14) / 36][Stage 39:==============================>                        (20 + 12) / 36][Stage 39:================================>                      (21 + 12) / 36][Stage 39:=================================>                     (22 + 12) / 36][Stage 39:===================================>                   (23 + 12) / 36][Stage 39:====================================>                  (24 + 12) / 36][Stage 39:=======================================>               (26 + 10) / 36][Stage 39:===========================================>            (28 + 8) / 36][Stage 39:==============================================>         (30 + 6) / 36][Stage 39:=================================================>      (32 + 4) / 36][Stage 39:====================================================>   (34 + 2) / 36][Stage 39:======================================================> (35 + 1) / 36]                                                                                [Stage 40:>                                                        (0 + 0) / 36][Stage 40:>                                                        (0 + 6) / 36][Stage 40:>                                                       (0 + 12) / 36][Stage 40:=>                                                      (1 + 14) / 36][Stage 40:====>                                                   (3 + 13) / 36][Stage 40:======>                                                 (4 + 16) / 36][Stage 40:==========>                                             (7 + 14) / 36][Stage 40:===============>                                       (10 + 13) / 36][Stage 40:==================>                                    (12 + 12) / 36][Stage 40:===================>                                   (13 + 13) / 36][Stage 40:=====================>                                 (14 + 14) / 36][Stage 40:========================>                              (16 + 12) / 36][Stage 40:=========================>                             (17 + 13) / 36][Stage 40:=============================>                         (19 + 12) / 36][Stage 40:==============================>                        (20 + 12) / 36][Stage 40:================================>                      (21 + 12) / 36][Stage 40:=================================>                     (22 + 13) / 36][Stage 40:===================================>                   (23 + 12) / 36][Stage 40:====================================>                  (24 + 12) / 36][Stage 40:======================================>                (25 + 11) / 36][Stage 40:==========================================>             (27 + 9) / 36][Stage 40:=============================================>          (29 + 7) / 36][Stage 40:==============================================>         (30 + 6) / 36][Stage 40:================================================>       (31 + 5) / 36][Stage 40:=================================================>      (32 + 4) / 36][Stage 40:===================================================>    (33 + 3) / 36][Stage 40:======================================================> (35 + 1) / 36][Stage 40:========================================================(36 + 0) / 36]                                                                                [Stage 41:>                                                         (0 + 1) / 1]                                                                                [Stage 42:>                                                         (0 + 1) / 1]                                                                                [Stage 43:>                                                        (0 + 7) / 36][Stage 43:>                                                       (0 + 12) / 36][Stage 43:>                                                       (0 + 13) / 36][Stage 43:===>                                                    (2 + 12) / 36][Stage 43:======>                                                 (4 + 13) / 36][Stage 43:=========>                                              (6 + 13) / 36][Stage 43:==============>                                         (9 + 12) / 36][Stage 43:================>                                      (11 + 13) / 36][Stage 43:==================>                                    (12 + 12) / 36][Stage 43:==================>                                    (12 + 13) / 36][Stage 43:=====================>                                 (14 + 12) / 36][Stage 43:======================>                                (15 + 12) / 36][Stage 43:=========================>                             (17 + 12) / 36][Stage 43:===========================>                           (18 + 12) / 36][Stage 43:==============================>                        (20 + 12) / 36][Stage 43:=================================>                     (22 + 12) / 36][Stage 43:===================================>                   (23 + 12) / 36][Stage 43:====================================>                  (24 + 12) / 36][Stage 43:==========================================>             (27 + 9) / 36][Stage 43:=============================================>          (29 + 7) / 36][Stage 43:================================================>       (31 + 5) / 36][Stage 43:=================================================>      (32 + 4) / 36][Stage 43:===================================================>    (33 + 3) / 36][Stage 43:====================================================>   (34 + 2) / 36][Stage 43:======================================================> (35 + 1) / 36]                                                                                [Stage 44:>                                                        (0 + 0) / 36][Stage 44:>                                                        (0 + 1) / 36][Stage 44:>                                                        (0 + 8) / 36][Stage 44:>                                                       (0 + 12) / 36][Stage 44:=>                                                      (1 + 12) / 36][Stage 44:====>                                                   (3 + 12) / 36][Stage 44:======>                                                 (4 + 14) / 36][Stage 44:==========>                                             (7 + 13) / 36][Stage 44:============>                                           (8 + 12) / 36][Stage 44:==============>                                         (9 + 13) / 36][Stage 44:===============>                                       (10 + 13) / 36][Stage 44:==================>                                    (12 + 12) / 36][Stage 44:=====================>                                 (14 + 13) / 36][Stage 44:========================>                              (16 + 12) / 36][Stage 44:===========================>                           (18 + 12) / 36][Stage 44:=============================>                         (19 + 12) / 36][Stage 44:==============================>                        (20 + 12) / 36][Stage 44:================================>                      (21 + 13) / 36][Stage 44:=================================>                     (22 + 12) / 36][Stage 44:===================================>                   (23 + 13) / 36][Stage 44:====================================>                  (24 + 12) / 36][Stage 44:=======================================>               (26 + 10) / 36][Stage 44:=============================================>          (29 + 7) / 36][Stage 44:==============================================>         (30 + 6) / 36][Stage 44:================================================>       (31 + 5) / 36][Stage 44:=================================================>      (32 + 4) / 36][Stage 44:===================================================>    (33 + 3) / 36][Stage 44:====================================================>   (34 + 2) / 36][Stage 44:======================================================> (35 + 1) / 36]                                                                                
--------------------------------
--- STARTING sparkmdr_x86.py ---
--------------------------------

Number of files to be processed 3.
Number of cores set to 4.
Number of partitions of the rdd set to 6.
Number of nodes set to 3.
Connected with spartk
Patients read
Ration cases/controls: 0.8768718801996672
List of files obtained.

----- RUNNING 3 FILES -----

Loading main file chr22_NuGENE0000.gz
Processing secondary file chr22_NuGENE0000.gz
Processing secondary file chr22_NuGENE0001.gz
Processing secondary file chr22_NuGENE0002.gz
Combined main file chr22_NuGENE0000.gz in: 370.61562966834754
------------------------------------------

Loading main file chr22_NuGENE0001.gz
Processing secondary file chr22_NuGENE0000.gz
Processing secondary file chr22_NuGENE0001.gz
Processing secondary file chr22_NuGENE0002.gz
Processing secondary file chr22_NuGENE0003.gz
Combined main file chr22_NuGENE0001.gz in: 280.6730821877718
------------------------------------------

Loading main file chr22_NuGENE0002.gz
Processing secondary file chr22_NuGENE0000.gz
Processing secondary file chr22_NuGENE0001.gz
Processing secondary file chr22_NuGENE0002.gz
Processing secondary file chr22_NuGENE0003.gz
Processing secondary file chr22_NuGENE0004.gz
Combined main file chr22_NuGENE0002.gz in: 287.1912030018866
------------------------------------------

Total time: 1641.890102095902
Total pairs processed: 22500

--- Copying spark-events to directory
/opt/slurm/22.05.3/var/slurm/job186071/slurm_script: line 48: module: command not found

-------------------
Running STOPSPARK.py
-------------------

-- Stopping MASTER 192.168.3.83
load singularity/3.9.6 (PATH)
is a directory
stopping org.apache.spark.deploy.master.Master
load singularity/3.9.6 (PATH)
INFO:    Stopping spark instance of /tmp/rootfs-536572977/root (PID=1245015)
INFO:    Killing spark instance of /tmp/rootfs-536572977/root (PID=1245015) (Timeout)
Stopping WORKER 192.168.3.84
load singularity/3.9.6 (PATH)
is a directory
stopping org.apache.spark.deploy.worker.Worker
load singularity/3.9.6 (PATH)
INFO:    Stopping spark instance of /tmp/rootfs-3001738060/root (PID=653149)
INFO:    Killing spark instance of /tmp/rootfs-3001738060/root (PID=653149) (Timeout)
Stopping WORKER 192.168.3.85
load singularity/3.9.6 (PATH)
is a directory
no org.apache.spark.deploy.worker.Worker to stop
load singularity/3.9.6 (PATH)
INFO:    Stopping spark instance of /tmp/rootfs-23217096/root (PID=612024)
INFO:    Killing spark instance of /tmp/rootfs-23217096/root (PID=612024) (Timeout)
Stopping WORKER 192.168.3.86
load singularity/3.9.6 (PATH)
is a directory
no org.apache.spark.deploy.worker.Worker to stop
load singularity/3.9.6 (PATH)
INFO:    Stopping spark instance of /tmp/rootfs-3481824516/root (PID=785764)
INFO:    Killing spark instance of /tmp/rootfs-3481824516/root (PID=785764) (Timeout)

-------------------
STOPSPARK.py done!
-------------------

*************
JSCRIPT DONE!
*************
