/opt/slurm/22.05.3/var/slurm/job126296/slurm_script: line 18: module: command not found

------------------
Running STARTSPARK.py
------------------

-- Creating spark instances
-- Creating tmp directories and throing spark instance in 192.168.3.82
rm: cannot remove '/tmp/spark/logs': No such file or directory
rm: cannot remove '/tmp/spark/work': No such file or directory
load singularity/3.9.6 (PATH)
INFO:    Converting SIF file to temporary sandbox...
is a directory

INFO:    instance started successfully
-- Creating tmp directories and throing spark instance in 192.168.3.83
rm: cannot remove '/tmp/spark/logs': No such file or directory
rm: cannot remove '/tmp/spark/work': No such file or directory
load singularity/3.9.6 (PATH)
INFO:    Converting SIF file to temporary sandbox...
is a directory

INFO:    instance started successfully
-- Creating tmp directories and throing spark instance in 192.168.3.84
rm: cannot remove '/tmp/spark/logs': No such file or directory
rm: cannot remove '/tmp/spark/work': No such file or directory
load singularity/3.9.6 (PATH)
INFO:    Converting SIF file to temporary sandbox...
is a directory

INFO:    instance started successfully
-- Creating tmp directories and starting spark instance in 192.168.3.81
rm: cannot remove '/tmp/spark/logs': No such file or directory
rm: cannot remove '/tmp/spark/work': No such file or directory
load singularity/3.9.6 (PATH)
INFO:    Converting SIF file to temporary sandbox...
is a directory

INFO:    instance started successfully
-- Starting MASTER
load singularity/3.9.6 (PATH)
is a directory
starting org.apache.spark.deploy.master.Master, logging to /opt/spark/logs/spark-ggomez-org.apache.spark.deploy.master.Master-1-arriesgado-3.out
failed to launch: nice -n 0 /opt/spark/bin/spark-class org.apache.spark.deploy.master.Master --host 192.168.3.81 --port 7078 --webui-port 8081
full log in /opt/spark/logs/spark-ggomez-org.apache.spark.deploy.master.Master-1-arriesgado-3.out
-- Starting WORKER 192.168.3.82
load singularity/3.9.6 (PATH)
is a directory
starting org.apache.spark.deploy.worker.Worker, logging to /opt/spark/logs/spark-ggomez-org.apache.spark.deploy.worker.Worker-1-arriesgado-4.out
failed to launch: nice -n 0 /opt/spark/bin/spark-class org.apache.spark.deploy.worker.Worker --webui-port 8082 192.168.3.81:7078 --cores 2
full log in /opt/spark/logs/spark-ggomez-org.apache.spark.deploy.worker.Worker-1-arriesgado-4.out
-- Starting WORKER 192.168.3.83
load singularity/3.9.6 (PATH)
is a directory
starting org.apache.spark.deploy.worker.Worker, logging to /opt/spark/logs/spark-ggomez-org.apache.spark.deploy.worker.Worker-2-arriesgado-5.out
failed to launch: nice -n 0 /opt/spark/bin/spark-class org.apache.spark.deploy.worker.Worker --webui-port 8083 192.168.3.81:7078 --cores 2
full log in /opt/spark/logs/spark-ggomez-org.apache.spark.deploy.worker.Worker-2-arriesgado-5.out
-- Starting WORKER 192.168.3.84
load singularity/3.9.6 (PATH)
is a directory
starting org.apache.spark.deploy.worker.Worker, logging to /opt/spark/logs/spark-ggomez-org.apache.spark.deploy.worker.Worker-3-arriesgado-6.out
failed to launch: nice -n 0 /opt/spark/bin/spark-class org.apache.spark.deploy.worker.Worker --webui-port 8084 192.168.3.81:7078 --cores 2
full log in /opt/spark/logs/spark-ggomez-org.apache.spark.deploy.worker.Worker-3-arriesgado-6.out


------------------
STARTSPARK.py done!
------------------

copying epistasis input to node 192.168.3.82
copying epistasis input to node 192.168.3.83
copying epistasis input to node 192.168.3.84
load singularity/3.9.6 (PATH)
is a directory
23/03/13 23:53:57 WARN Utils: Your hostname, arriesgado-3 resolves to a loopback address: 127.0.1.1; using 192.168.3.81 instead (on interface eth0)
23/03/13 23:53:57 WARN Utils: Set SPARK_LOCAL_IP if you need to bind to another address
WARNING: An illegal reflective access operation has occurred
WARNING: Illegal reflective access by org.apache.spark.unsafe.Platform (file:/opt/spark/jars/spark-unsafe_2.12-3.1.1.jar) to constructor java.nio.DirectByteBuffer(long,int)
WARNING: Please consider reporting this to the maintainers of org.apache.spark.unsafe.Platform
WARNING: Use --illegal-access=warn to enable warnings of further illegal reflective access operations
WARNING: All illegal access operations will be denied in a future release
23/03/13 23:54:17 WARN NativeCodeLoader: Unable to load native-hadoop library for your platform... using builtin-java classes where applicable
Using Spark's default log4j profile: org/apache/spark/log4j-defaults.properties
Setting default log level to "WARN".
To adjust logging level use sc.setLogLevel(newLevel). For SparkR, use setLogLevel(newLevel).
[Stage 0:>                                                          (0 + 0) / 1][Stage 0:>                                                          (0 + 1) / 1][Stage 0:>                                                          (0 + 1) / 1]                                                                                [Stage 1:>                                                          (0 + 0) / 1][Stage 1:>                                                          (0 + 1) / 1]                                                                                [Stage 2:>                                                          (0 + 2) / 2][Stage 2:=============================>                             (1 + 1) / 2]                                                                                [Stage 3:>                                                          (0 + 1) / 1]                                                                                [Stage 4:>                                                          (0 + 1) / 1]                                                                                [Stage 5:>                                                          (0 + 3) / 3][Stage 5:===================>                                       (1 + 2) / 3][Stage 5:=======================================>                   (2 + 1) / 3]                                                                                [Stage 6:>                                                          (0 + 1) / 1][Stage 6:===========================================================(1 + 0) / 1]                                                                                [Stage 7:>                                                          (0 + 1) / 1]                                                                                [Stage 8:>                                                          (0 + 6) / 9][Stage 8:=============>                                             (2 + 6) / 9][Stage 8:===================>                                       (3 + 6) / 9][Stage 8:==========================>                                (4 + 5) / 9][Stage 8:=======================================>                   (6 + 3) / 9][Stage 8:=============================================>             (7 + 2) / 9][Stage 8:====================================================>      (8 + 1) / 9]                                                                                [Stage 9:>                                                          (0 + 6) / 9][Stage 9:======>                                                    (1 + 7) / 9][Stage 9:=============>                                             (2 + 6) / 9][Stage 9:==========================>                                (4 + 5) / 9][Stage 9:================================>                          (5 + 4) / 9][Stage 9:=======================================>                   (6 + 3) / 9][Stage 9:====================================================>      (8 + 1) / 9]                                                                                [Stage 10:>                                                         (0 + 0) / 9][Stage 10:>                                                         (0 + 3) / 9][Stage 10:>                                                         (0 + 6) / 9][Stage 10:>                                                         (0 + 7) / 9][Stage 10:===================>                                      (3 + 6) / 9][Stage 10:=========================>                                (4 + 5) / 9][Stage 10:======================================>                   (6 + 3) / 9][Stage 10:===================================================>      (8 + 1) / 9]                                                                                [Stage 11:>                                                         (0 + 1) / 1]                                                                                [Stage 12:>                                                         (0 + 1) / 1]                                                                                [Stage 13:>                                                         (0 + 6) / 9][Stage 13:>                                                         (0 + 7) / 9][Stage 13:============>                                             (2 + 6) / 9][Stage 13:=========================>                                (4 + 5) / 9][Stage 13:================================>                         (5 + 4) / 9][Stage 13:======================================>                   (6 + 3) / 9][Stage 13:===================================================>      (8 + 1) / 9]                                                                                [Stage 14:>                                                         (0 + 6) / 9][Stage 14:======>                                                   (1 + 6) / 9][Stage 14:============>                                             (2 + 6) / 9][Stage 14:===================>                                      (3 + 6) / 9][Stage 14:======================================>                   (6 + 3) / 9][Stage 14:===================================================>      (8 + 1) / 9]                                                                                [Stage 15:>                                                         (0 + 0) / 9][Stage 15:>                                                         (0 + 1) / 9][Stage 15:>                                                         (0 + 6) / 9][Stage 15:======>                                                   (1 + 7) / 9][Stage 15:============>                                             (2 + 6) / 9][Stage 15:=========================>                                (4 + 5) / 9][Stage 15:======================================>                   (6 + 3) / 9][Stage 15:===================================================>      (8 + 1) / 9]                                                                                [Stage 16:>                                                         (0 + 1) / 1]                                                                                [Stage 17:>                                                         (0 + 1) / 1]                                                                                [Stage 18:>                                                         (0 + 6) / 9][Stage 18:======>                                                   (1 + 7) / 9][Stage 18:=========================>                                (4 + 5) / 9][Stage 18:======================================>                   (6 + 3) / 9][Stage 18:=============================================>            (7 + 2) / 9][Stage 18:===================================================>      (8 + 1) / 9]                                                                                [Stage 19:>                                                         (0 + 6) / 9][Stage 19:>                                                         (0 + 7) / 9][Stage 19:===================>                                      (3 + 6) / 9][Stage 19:======================================>                   (6 + 3) / 9][Stage 19:===================================================>      (8 + 1) / 9]                                                                                [Stage 20:>                                                         (0 + 0) / 9][Stage 20:>                                                         (0 + 6) / 9][Stage 20:======>                                                   (1 + 7) / 9][Stage 20:============>                                             (2 + 6) / 9][Stage 20:=========================>                                (4 + 5) / 9][Stage 20:================================>                         (5 + 4) / 9][Stage 20:======================================>                   (6 + 3) / 9][Stage 20:===================================================>      (8 + 1) / 9]                                                                                [Stage 21:>                                                         (0 + 1) / 1]                                                                                [Stage 22:>                                                         (0 + 1) / 1]                                                                                [Stage 23:>                                                         (0 + 3) / 3]                                                                                [Stage 24:>                                                         (0 + 1) / 1]                                                                                [Stage 25:>                                                         (0 + 1) / 1]                                                                                [Stage 26:>                                                         (0 + 6) / 9][Stage 26:======>                                                   (1 + 6) / 9][Stage 26:===================>                                      (3 + 6) / 9][Stage 26:======================================>                   (6 + 3) / 9][Stage 26:===================================================>      (8 + 1) / 9]                                                                                [Stage 27:>                                                         (0 + 6) / 9][Stage 27:======>                                                   (1 + 7) / 9][Stage 27:=========================>                                (4 + 5) / 9][Stage 27:======================================>                   (6 + 3) / 9][Stage 27:===================================================>      (8 + 1) / 9][Stage 27:==========================================================(9 + 0) / 9]                                                                                [Stage 28:>                                                         (0 + 0) / 9][Stage 28:>                                                         (0 + 6) / 9][Stage 28:======>                                                   (1 + 7) / 9][Stage 28:===================>                                      (3 + 6) / 9][Stage 28:=========================>                                (4 + 5) / 9][Stage 28:======================================>                   (6 + 3) / 9][Stage 28:=============================================>            (7 + 2) / 9][Stage 28:===================================================>      (8 + 1) / 9]                                                                                [Stage 29:>                                                         (0 + 1) / 1]                                                                                [Stage 30:>                                                         (0 + 1) / 1]                                                                                [Stage 31:>                                                         (0 + 6) / 9][Stage 31:>                                                         (0 + 7) / 9][Stage 31:===================>                                      (3 + 6) / 9][Stage 31:=========================>                                (4 + 5) / 9][Stage 31:================================>                         (5 + 4) / 9][Stage 31:======================================>                   (6 + 3) / 9][Stage 31:=============================================>            (7 + 2) / 9][Stage 31:===================================================>      (8 + 1) / 9]                                                                                [Stage 32:>                                                         (0 + 6) / 9][Stage 32:============>                                             (2 + 6) / 9][Stage 32:===================>                                      (3 + 6) / 9][Stage 32:=========================>                                (4 + 5) / 9][Stage 32:================================>                         (5 + 4) / 9][Stage 32:======================================>                   (6 + 3) / 9][Stage 32:===================================================>      (8 + 1) / 9]                                                                                [Stage 33:>                                                         (0 + 0) / 9][Stage 33:>                                                         (0 + 6) / 9][Stage 33:>                                                         (0 + 7) / 9][Stage 33:============>                                             (2 + 6) / 9][Stage 33:===================>                                      (3 + 6) / 9][Stage 33:=========================>                                (4 + 5) / 9][Stage 33:================================>                         (5 + 4) / 9][Stage 33:======================================>                   (6 + 3) / 9][Stage 33:===================================================>      (8 + 1) / 9]                                                                                [Stage 34:>                                                         (0 + 1) / 1]                                                                                [Stage 35:>                                                         (0 + 1) / 1]                                                                                [Stage 36:>                                                         (0 + 3) / 3][Stage 36:===================>                                      (1 + 2) / 3]                                                                                [Stage 37:>                                                         (0 + 1) / 1]                                                                                [Stage 38:>                                                         (0 + 1) / 1]                                                                                [Stage 39:>                                                         (0 + 6) / 9][Stage 39:>                                                         (0 + 7) / 9][Stage 39:============>                                             (2 + 6) / 9][Stage 39:===================>                                      (3 + 6) / 9][Stage 39:=========================>                                (4 + 5) / 9][Stage 39:================================>                         (5 + 4) / 9][Stage 39:======================================>                   (6 + 3) / 9][Stage 39:=============================================>            (7 + 2) / 9][Stage 39:===================================================>      (8 + 1) / 9]                                                                                [Stage 40:>                                                         (0 + 6) / 9][Stage 40:======>                                                   (1 + 6) / 9][Stage 40:============>                                             (2 + 6) / 9][Stage 40:===================>                                      (3 + 6) / 9][Stage 40:=========================>                                (4 + 5) / 9][Stage 40:======================================>                   (6 + 3) / 9][Stage 40:=============================================>            (7 + 2) / 9][Stage 40:===================================================>      (8 + 1) / 9]                                                                                [Stage 41:>                                                         (0 + 0) / 9][Stage 41:>                                                         (0 + 6) / 9][Stage 41:======>                                                   (1 + 7) / 9][Stage 41:=========================>                                (4 + 5) / 9][Stage 41:======================================>                   (6 + 3) / 9][Stage 41:=============================================>            (7 + 2) / 9]                                                                                
--------------------------------
--- STARTING sparkmdr_x86.py ---
--------------------------------

Number of files to be processed 3.
Number of cores set to 2.
Number of partitions of the rdd set to 3.
Connected with spartk
Patients read
Ration cases/controls: 0.8768718801996672
List of files obtained.

----- RUNNING 3 FILES -----

Loading main file chr22_NuGENE0000.gz
File loaded in :  70.07763633271679
RDD1 partitions: 3
RDD1 variants: 50
Processing secondary file chr22_NuGENE0000.gz
File 2 loaded.
Applying MDR...
MDR applied to: 2500 pairs.
Saving data...
Data saved.

Processing secondary file chr22_NuGENE0001.gz
File 2 loaded.
Applying MDR...
MDR applied to: 2500 pairs.
Saving data...
Data saved.

Processing secondary file chr22_NuGENE0002.gz
File 2 loaded.
Applying MDR...
MDR applied to: 2500 pairs.
Saving data...
Data saved.

Combined main file chr22_NuGENE0000.gz in: 368.1148866927251
------------------------------------------

Loading main file chr22_NuGENE0001.gz
File loaded in :  18.631015446968377
RDD1 partitions: 3
RDD1 variants: 50
Processing secondary file chr22_NuGENE0000.gz
Skipping file. mdr_chr22_NuGENE0000_chr22_NuGENE0001 already processed.
Processing secondary file chr22_NuGENE0001.gz
File 2 loaded.
Applying MDR...
MDR applied to: 2500 pairs.
Saving data...
Data saved.

Processing secondary file chr22_NuGENE0002.gz
File 2 loaded.
Applying MDR...
MDR applied to: 2500 pairs.
Saving data...
Data saved.

Combined main file chr22_NuGENE0001.gz in: 203.16922069108114
------------------------------------------

Loading main file chr22_NuGENE0002.gz
File loaded in :  18.79482727078721
RDD1 partitions: 3
RDD1 variants: 50
Processing secondary file chr22_NuGENE0000.gz
Skipping file. mdr_chr22_NuGENE0000_chr22_NuGENE0002 already processed.
Processing secondary file chr22_NuGENE0001.gz
Skipping file. mdr_chr22_NuGENE0001_chr22_NuGENE0002 already processed.
Processing secondary file chr22_NuGENE0002.gz
File 2 loaded.
Applying MDR...
MDR applied to: 2500 pairs.
Saving data...
Data saved.

Combined main file chr22_NuGENE0002.gz in: 114.89818928902969
------------------------------------------

Running time: 686.1825666730292
Total time: 1245.9953266759403
Total pairs processed: 15000
/opt/slurm/22.05.3/var/slurm/job126296/slurm_script: line 36: module: command not found

-------------------
Running STOPSPARK.py
-------------------

-- Stopping MASTER 192.168.3.81
bash: line 1: singularity: command not found
Stopping WORKER 192.168.3.82
bash: line 1: singularity: command not found
Stopping WORKER 192.168.3.83
bash: line 1: singularity: command not found
Stopping WORKER 192.168.3.84
bash: line 1: singularity: command not found
-- Stopping singularity instance
bash: line 1: singularity: command not found
bash: line 1: singularity: command not found
bash: line 1: singularity: command not found

-------------------
STOPSPARK.py done!
-------------------

*************
JSCRIPT DONE!
*************
