Number of cores: 1
Dataset: partitions
Number of partitions 3
Number of files: 1
Total pairs processed: 2500
Total time: 888.7683309996501

Number of cores: 2
Dataset: partitions
Number of partitions 6
Number of files: 1
Total pairs processed: 2500
Total time: 950.6706465845928

Number of cores: 4
Dataset: partitions
Number of partitions 6
Number of files: 1
Total pairs processed: 2500
Total time: 950.5814385833219

Number of cores: 1
Dataset: partitions
Number of partitions 3
Number of files: 3
Total pairs processed: 22500
Total time: 1742.8485571900383

Number of cores: 2
Dataset: partitions
Number of partitions 6
Number of files: 3
Total pairs processed: 22500
Total time: 1819.8455535108224

Number of cores: 4
Dataset: partitions
Number of partitions 6
Number of files: 3
Total pairs processed: 22500
Total time: 1642.4760556034744

Number of cores: 1
Dataset: partitions
Number of partitions 3
Number of files: 5
Total pairs processed: 62500
Total time: 3176.022291606292

Number of cores: 2
Dataset: partitions
Number of partitions 6
Number of files: 5
Total pairs processed: 62500
Total time: 3482.96644272469

Number of cores: 4
Dataset: partitions
Number of partitions 6
Number of files: 5
Total pairs processed: 62500
Total time: 3096.37050149031

